ggplot2主题系统演示
…
---

count: false

.panel1-mpg-auto[

```r
*mpg
```
]
 
.panel2-mpg-auto[

```
# A tibble: 234 x 11
   manufacturer model      displ  year   cyl trans drv     cty   hwy fl    class
   <chr>        <chr>      <dbl> <int> <int> <chr> <chr> <int> <int> <chr> <chr>
 1 audi         a4           1.8  1999     4 auto~ f        18    29 p     comp~
 2 audi         a4           1.8  1999     4 manu~ f        21    29 p     comp~
 3 audi         a4           2    2008     4 manu~ f        20    31 p     comp~
 4 audi         a4           2    2008     4 auto~ f        21    30 p     comp~
 5 audi         a4           2.8  1999     6 auto~ f        16    26 p     comp~
 6 audi         a4           2.8  1999     6 manu~ f        18    26 p     comp~
 7 audi         a4           3.1  2008     6 auto~ f        18    27 p     comp~
 8 audi         a4 quattro   1.8  1999     4 manu~ 4        18    26 p     comp~
 9 audi         a4 quattro   1.8  1999     4 auto~ 4        16    25 p     comp~
10 audi         a4 quattro   2    2008     4 manu~ 4        20    28 p     comp~
# ... with 224 more rows
# i Use `print(n = ...)` to see more rows
```
…
---

count: false

.panel1-mpg1-auto[

```r
*data
```
]
 
.panel2-mpg1-auto[

```
# A tibble: 234 x 11
   manufacturer model      displ  year   cyl trans drv     cty   hwy fl    class
   <chr>        <chr>      <dbl> <int> <int> <chr> <chr> <int> <int> <chr> <chr>
 1 audi         a4           1.8  1999     4 Auto~ f        18    29 p     comp~
 2 audi         a4           1.8  1999     4 Manu~ f        21    29 p     comp~
 3 audi         a4           2    2008     4 Manu~ f        20    31 p     comp~
 4 audi         a4           2    2008     4 Auto~ f        21    30 p     comp~
 5 audi         a4           2.8  1999     6 Auto~ f        16    26 p     comp~
 6 audi         a4           2.8  1999     6 Manu~ f        18    26 p     comp~
 7 audi         a4           3.1  2008     6 Auto~ f        18    27 p     comp~
 8 audi         a4 quattro   1.8  1999     4 Manu~ 4        18    26 p     comp~
 9 audi         a4 quattro   1.8  1999     4 Auto~ 4        16    25 p     comp~
10 audi         a4 quattro   2    2008     4 Manu~ 4        20    28 p     comp~
# ... with 224 more rows
# i Use `print(n = ...)` to see more rows
```
…
